%YAML 1.1
%TAG !u! tag:unity3d.com,2011:
--- !u!1 &5796616832147405599
GameObject:
  m_ObjectHideFlags: 0
  m_CorrespondingSourceObject: {fileID: 0}
  m_PrefabInstance: {fileID: 0}
  m_PrefabAsset: {fileID: 0}
  serializedVersion: 6
  m_Component:
  - component: {fileID: 5796616832147405597}
  - component: {fileID: 5796616832147405596}
  m_Layer: 0
  m_Name: DialogueManager
  m_TagString: Untagged
  m_Icon: {fileID: 0}
  m_NavMeshLayer: 0
  m_StaticEditorFlags: 0
  m_IsActive: 1
--- !u!4 &5796616832147405597
Transform:
  m_ObjectHideFlags: 0
  m_CorrespondingSourceObject: {fileID: 0}
  m_PrefabInstance: {fileID: 0}
  m_PrefabAsset: {fileID: 0}
  m_GameObject: {fileID: 5796616832147405599}
  m_LocalRotation: {x: 0, y: 0, z: 0, w: 1}
  m_LocalPosition: {x: 977.1568, y: 654.8338, z: -446.98453}
  m_LocalScale: {x: 1, y: 1, z: 1}
  m_Children: []
  m_Father: {fileID: 0}
  m_RootOrder: 0
  m_LocalEulerAnglesHint: {x: 0, y: 0, z: 0}
--- !u!114 &5796616832147405596
MonoBehaviour:
  m_ObjectHideFlags: 0
  m_CorrespondingSourceObject: {fileID: 0}
  m_PrefabInstance: {fileID: 0}
  m_PrefabAsset: {fileID: 0}
  m_GameObject: {fileID: 5796616832147405599}
  m_Enabled: 1
  m_EditorHideFlags: 0
  m_Script: {fileID: 11500000, guid: fb2e118c413fc0a48bb35adf6122c0af, type: 3}
  m_Name: 
  m_EditorClassIdentifier: 
  dialogueList:
  - thisDialogue: {fileID: 11400000, guid: 5a1c321bae9586d47b1a784ddeca2333, type: 2}
    dialogueId: furry
  - thisDialogue: {fileID: 11400000, guid: 3179bb0fbfe51454e8039fd92c89decc, type: 2}
    dialogueId: 
  dialogueData: {fileID: 0}
