%YAML 1.1
%TAG !u! tag:unity3d.com,2011:
--- !u!205 &3670713643403349430
LODGroup:
  m_ObjectHideFlags: 0
  m_CorrespondingSourceObject: {fileID: 0}
  m_PrefabInstance: {fileID: 0}
  m_PrefabAsset: {fileID: 0}
  m_GameObject: {fileID: 289482386302148258}
  serializedVersion: 2
  m_LocalReferencePoint: {x: 0.87949145, y: -0.13522649, z: 3.4363189}
  m_Size: 6.885129
  m_FadeMode: 0
  m_AnimateCrossFading: 0
  m_LastLODIsBillboard: 0
  m_LODs:
  - screenRelativeHeight: 0.02260944
    fadeTransitionWidth: 0
    renderers:
    - renderer: {fileID: 2235068280616927095}
  m_Enabled: 1
--- !u!1 &3435375453613082613
GameObject:
  m_ObjectHideFlags: 0
  m_CorrespondingSourceObject: {fileID: 0}
  m_PrefabInstance: {fileID: 0}
  m_PrefabAsset: {fileID: 0}
  serializedVersion: 6
  m_Component:
  - component: {fileID: 3353593219528536666}
  m_Layer: 0
  m_Name: CactusDesert OpenWorld
  m_TagString: Untagged
  m_Icon: {fileID: 0}
  m_NavMeshLayer: 0
  m_StaticEditorFlags: 83
  m_IsActive: 1
--- !u!4 &3353593219528536666
Transform:
  m_ObjectHideFlags: 0
  m_CorrespondingSourceObject: {fileID: 0}
  m_PrefabInstance: {fileID: 0}
  m_PrefabAsset: {fileID: 0}
  m_GameObject: {fileID: 3435375453613082613}
  m_LocalRotation: {x: 0, y: 0, z: 0, w: 1}
  m_LocalPosition: {x: 0, y: 0, z: 0}
  m_LocalScale: {x: 1, y: 1, z: 1}
  m_Children:
  - {fileID: 1103278686933992472}
  m_Father: {fileID: 0}
  m_RootOrder: 0
  m_LocalEulerAnglesHint: {x: 0, y: 0, z: 0}
--- !u!1001 &631941437688685555
PrefabInstance:
  m_ObjectHideFlags: 0
  serializedVersion: 2
  m_Modification:
    m_TransformParent: {fileID: 3353593219528536666}
    m_Modifications:
    - target: {fileID: -8679921383154817045, guid: 294f187e563be3840a945b17b5702da7, type: 3}
      propertyPath: m_RootOrder
      value: 0
      objectReference: {fileID: 0}
    - target: {fileID: -8679921383154817045, guid: 294f187e563be3840a945b17b5702da7, type: 3}
      propertyPath: m_LocalScale.x
      value: 0.08
      objectReference: {fileID: 0}
    - target: {fileID: -8679921383154817045, guid: 294f187e563be3840a945b17b5702da7, type: 3}
      propertyPath: m_LocalScale.y
      value: 0.07999999
      objectReference: {fileID: 0}
    - target: {fileID: -8679921383154817045, guid: 294f187e563be3840a945b17b5702da7, type: 3}
      propertyPath: m_LocalScale.z
      value: 0.07999999
      objectReference: {fileID: 0}
    - target: {fileID: -8679921383154817045, guid: 294f187e563be3840a945b17b5702da7, type: 3}
      propertyPath: m_LocalPosition.x
      value: 0
      objectReference: {fileID: 0}
    - target: {fileID: -8679921383154817045, guid: 294f187e563be3840a945b17b5702da7, type: 3}
      propertyPath: m_LocalPosition.y
      value: 0
      objectReference: {fileID: 0}
    - target: {fileID: -8679921383154817045, guid: 294f187e563be3840a945b17b5702da7, type: 3}
      propertyPath: m_LocalPosition.z
      value: 0
      objectReference: {fileID: 0}
    - target: {fileID: -8679921383154817045, guid: 294f187e563be3840a945b17b5702da7, type: 3}
      propertyPath: m_LocalRotation.w
      value: 0.7071067
      objectReference: {fileID: 0}
    - target: {fileID: -8679921383154817045, guid: 294f187e563be3840a945b17b5702da7, type: 3}
      propertyPath: m_LocalRotation.x
      value: -0.7071068
      objectReference: {fileID: 0}
    - target: {fileID: -8679921383154817045, guid: 294f187e563be3840a945b17b5702da7, type: 3}
      propertyPath: m_LocalRotation.y
      value: -0
      objectReference: {fileID: 0}
    - target: {fileID: -8679921383154817045, guid: 294f187e563be3840a945b17b5702da7, type: 3}
      propertyPath: m_LocalRotation.z
      value: -0
      objectReference: {fileID: 0}
    - target: {fileID: -8679921383154817045, guid: 294f187e563be3840a945b17b5702da7, type: 3}
      propertyPath: m_LocalEulerAnglesHint.x
      value: 0
      objectReference: {fileID: 0}
    - target: {fileID: -8679921383154817045, guid: 294f187e563be3840a945b17b5702da7, type: 3}
      propertyPath: m_LocalEulerAnglesHint.y
      value: 0
      objectReference: {fileID: 0}
    - target: {fileID: -8679921383154817045, guid: 294f187e563be3840a945b17b5702da7, type: 3}
      propertyPath: m_LocalEulerAnglesHint.z
      value: 0
      objectReference: {fileID: 0}
    - target: {fileID: -7511558181221131132, guid: 294f187e563be3840a945b17b5702da7, type: 3}
      propertyPath: m_Materials.Array.data[0]
      value: 
      objectReference: {fileID: 2100000, guid: 264f2d1f27f3ba04fbb3db30b8a5143f, type: 2}
    - target: {fileID: 919132149155446097, guid: 294f187e563be3840a945b17b5702da7, type: 3}
      propertyPath: m_Name
      value: CactusDesert
      objectReference: {fileID: 0}
    - target: {fileID: 919132149155446097, guid: 294f187e563be3840a945b17b5702da7, type: 3}
      propertyPath: m_StaticEditorFlags
      value: 83
      objectReference: {fileID: 0}
    m_RemovedComponents: []
  m_SourcePrefab: {fileID: 100100000, guid: 294f187e563be3840a945b17b5702da7, type: 3}
--- !u!1 &289482386302148258 stripped
GameObject:
  m_CorrespondingSourceObject: {fileID: 919132149155446097, guid: 294f187e563be3840a945b17b5702da7, type: 3}
  m_PrefabInstance: {fileID: 631941437688685555}
  m_PrefabAsset: {fileID: 0}
--- !u!4 &1103278686933992472 stripped
Transform:
  m_CorrespondingSourceObject: {fileID: -8679921383154817045, guid: 294f187e563be3840a945b17b5702da7, type: 3}
  m_PrefabInstance: {fileID: 631941437688685555}
  m_PrefabAsset: {fileID: 0}
--- !u!23 &2235068280616927095 stripped
MeshRenderer:
  m_CorrespondingSourceObject: {fileID: -7511558181221131132, guid: 294f187e563be3840a945b17b5702da7, type: 3}
  m_PrefabInstance: {fileID: 631941437688685555}
  m_PrefabAsset: {fileID: 0}
