%YAML 1.1
%TAG !u! tag:unity3d.com,2011:
--- !u!1 &2053991632115880911
GameObject:
  m_ObjectHideFlags: 0
  m_CorrespondingSourceObject: {fileID: 0}
  m_PrefabInstance: {fileID: 0}
  m_PrefabAsset: {fileID: 0}
  serializedVersion: 6
  m_Component:
  - component: {fileID: 3876388343002760375}
  m_Layer: 0
  m_Name: Tree OpenWorld
  m_TagString: Untagged
  m_Icon: {fileID: 0}
  m_NavMeshLayer: 0
  m_StaticEditorFlags: 83
  m_IsActive: 1
--- !u!4 &3876388343002760375
Transform:
  m_ObjectHideFlags: 0
  m_CorrespondingSourceObject: {fileID: 0}
  m_PrefabInstance: {fileID: 0}
  m_PrefabAsset: {fileID: 0}
  m_GameObject: {fileID: 2053991632115880911}
  m_LocalRotation: {x: 0, y: 0, z: 0, w: 1}
  m_LocalPosition: {x: 0, y: 0, z: 0}
  m_LocalScale: {x: 0.002, y: 0.002, z: 0.002}
  m_Children:
  - {fileID: 3932277193772314834}
  m_Father: {fileID: 0}
  m_RootOrder: 0
  m_LocalEulerAnglesHint: {x: 0, y: 0, z: 0}
--- !u!205 &2302409294067177790
LODGroup:
  m_ObjectHideFlags: 0
  m_CorrespondingSourceObject: {fileID: 0}
  m_PrefabInstance: {fileID: 0}
  m_PrefabAsset: {fileID: 0}
  m_GameObject: {fileID: 4456753743011736168}
  serializedVersion: 2
  m_LocalReferencePoint: {x: 0.5357094, y: 0.7252159, z: 4.041694}
  m_Size: 8.152791
  m_FadeMode: 0
  m_AnimateCrossFading: 0
  m_LastLODIsBillboard: 0
  m_LODs:
  - screenRelativeHeight: 0.017533042
    fadeTransitionWidth: 0
    renderers:
    - renderer: {fileID: 2799389154284456893}
  m_Enabled: 1
--- !u!1001 &3537850441525516089
PrefabInstance:
  m_ObjectHideFlags: 0
  serializedVersion: 2
  m_Modification:
    m_TransformParent: {fileID: 3876388343002760375}
    m_Modifications:
    - target: {fileID: -8679921383154817045, guid: 233e6e5de6d00ae4ca22c70a50a68c00, type: 3}
      propertyPath: m_RootOrder
      value: 0
      objectReference: {fileID: 0}
    - target: {fileID: -8679921383154817045, guid: 233e6e5de6d00ae4ca22c70a50a68c00, type: 3}
      propertyPath: m_LocalPosition.x
      value: 17.014542
      objectReference: {fileID: 0}
    - target: {fileID: -8679921383154817045, guid: 233e6e5de6d00ae4ca22c70a50a68c00, type: 3}
      propertyPath: m_LocalPosition.y
      value: 11.003426
      objectReference: {fileID: 0}
    - target: {fileID: -8679921383154817045, guid: 233e6e5de6d00ae4ca22c70a50a68c00, type: 3}
      propertyPath: m_LocalPosition.z
      value: 7.9868774
      objectReference: {fileID: 0}
    - target: {fileID: -8679921383154817045, guid: 233e6e5de6d00ae4ca22c70a50a68c00, type: 3}
      propertyPath: m_LocalRotation.w
      value: 0.7071067
      objectReference: {fileID: 0}
    - target: {fileID: -8679921383154817045, guid: 233e6e5de6d00ae4ca22c70a50a68c00, type: 3}
      propertyPath: m_LocalRotation.x
      value: -0.7071068
      objectReference: {fileID: 0}
    - target: {fileID: -8679921383154817045, guid: 233e6e5de6d00ae4ca22c70a50a68c00, type: 3}
      propertyPath: m_LocalRotation.y
      value: -0
      objectReference: {fileID: 0}
    - target: {fileID: -8679921383154817045, guid: 233e6e5de6d00ae4ca22c70a50a68c00, type: 3}
      propertyPath: m_LocalRotation.z
      value: -0
      objectReference: {fileID: 0}
    - target: {fileID: -8679921383154817045, guid: 233e6e5de6d00ae4ca22c70a50a68c00, type: 3}
      propertyPath: m_LocalEulerAnglesHint.x
      value: 0
      objectReference: {fileID: 0}
    - target: {fileID: -8679921383154817045, guid: 233e6e5de6d00ae4ca22c70a50a68c00, type: 3}
      propertyPath: m_LocalEulerAnglesHint.y
      value: 0
      objectReference: {fileID: 0}
    - target: {fileID: -8679921383154817045, guid: 233e6e5de6d00ae4ca22c70a50a68c00, type: 3}
      propertyPath: m_LocalEulerAnglesHint.z
      value: 0
      objectReference: {fileID: 0}
    - target: {fileID: 919132149155446097, guid: 233e6e5de6d00ae4ca22c70a50a68c00, type: 3}
      propertyPath: m_Name
      value: Tree
      objectReference: {fileID: 0}
    - target: {fileID: 919132149155446097, guid: 233e6e5de6d00ae4ca22c70a50a68c00, type: 3}
      propertyPath: m_StaticEditorFlags
      value: 83
      objectReference: {fileID: 0}
    m_RemovedComponents: []
  m_SourcePrefab: {fileID: 100100000, guid: 233e6e5de6d00ae4ca22c70a50a68c00, type: 3}
--- !u!1 &4456753743011736168 stripped
GameObject:
  m_CorrespondingSourceObject: {fileID: 919132149155446097, guid: 233e6e5de6d00ae4ca22c70a50a68c00, type: 3}
  m_PrefabInstance: {fileID: 3537850441525516089}
  m_PrefabAsset: {fileID: 0}
--- !u!4 &3932277193772314834 stripped
Transform:
  m_CorrespondingSourceObject: {fileID: -8679921383154817045, guid: 233e6e5de6d00ae4ca22c70a50a68c00, type: 3}
  m_PrefabInstance: {fileID: 3537850441525516089}
  m_PrefabAsset: {fileID: 0}
--- !u!23 &2799389154284456893 stripped
MeshRenderer:
  m_CorrespondingSourceObject: {fileID: -7511558181221131132, guid: 233e6e5de6d00ae4ca22c70a50a68c00, type: 3}
  m_PrefabInstance: {fileID: 3537850441525516089}
  m_PrefabAsset: {fileID: 0}
